Data Tables and Quality Control • mesa
…
Generating tables of values from a qseaSet

QSEA has several different types of values that can be returned per
window. You can get a table of raw counts per window with
getCountTable:

exampleTumourNormal %>%
  getCountTable()
#> Generating table of counts values for 819 regions across 10 samples.
#> # A tibble: 819 × 14
#>    seqnames    start      end CpG_density Colon1_N Colon1_T Colon2_N Colon2_T
#>    <fct>       <int>    <int>       <dbl>    <dbl>    <dbl>    <dbl>    <dbl>
#>  1 7        25002001 25002300        5.51        0        1        1        1
#>  2 7        25005001 25005300       13.4         1        0        0        0
#>  3 7        25008601 25008900        5.57        0        0        0        1
#>  4 7        25011301 25011600        5.10        0        1        0        1
#>  5 7        25017601 25017900        8.38        0        0       18       14
#>  6 7        25017901 25018200       17.9         0        4       11       18
#>  7 7        25018201 25018500       16.5         1        0        4        4
#>  8 7        25018501 25018800       17.5         0        0        1        0
#>  9 7        25018801 25019100       15.3         1        0        2        3
#> 10 7        25019101 25019400       18.2         3        2        9        4
#> # ℹ 809 more rows
#> # ℹ 6 more variables: Lung1_N <dbl>, Lung1_T <dbl>, Lung2_N <dbl>,
#> #   Lung2_T <dbl>, Lung3_N <dbl>, Lung3_T <dbl>
but this is not particularly useful, as different samples generally
have been sequenced to different read depths. We note that the
annotation of the qseaSet regions are included in this
output, especially the CpG_density that is described in
vignette("Generation of qseaSets").

The next option is normalised reads per million (NRPM). This
normalises the number of reads by the depth of sequencing, as well as
copy number variation.

exampleTumourNormal %>%
  getNRPMTable()
#> Generating table of nrpm values for 819 regions across 10 samples.
#> Loading required namespace: GenomeInfoDb
#> # A tibble: 819 × 14
#>    seqnames    start      end CpG_density Colon1_N Colon1_T Colon2_N Colon2_T
#>    <fct>       <int>    <int>       <dbl>    <dbl>    <dbl>    <dbl>    <dbl>
#>  1 7        25002001 25002300        5.51    0        0.131    0.246    0.178
#>  2 7        25005001 25005300       13.4     0.263    0        0        0    
#>  3 7        25008601 25008900        5.57    0        0        0        0.178
#>  4 7        25011301 25011600        5.10    0        0.131    0        0.178
#>  5 7        25017601 25017900        8.38    0        0        4.42     2.50 
#>  6 7        25017901 25018200       17.9     0        0.523    2.70     3.21 
#>  7 7        25018201 25018500       16.5     0.263    0        0.983    0.713
#>  8 7        25018501 25018800       17.5     0        0        0.246    0    
#>  9 7        25018801 25019100       15.3     0.263    0        0.491    0.535
#> 10 7        25019101 25019400       18.2     0.788    0.262    2.21     0.713
#> # ℹ 809 more rows
#> # ℹ 6 more variables: Lung1_N <dbl>, Lung1_T <dbl>, Lung2_N <dbl>,
#> #   Lung2_T <dbl>, Lung3_N <dbl>, Lung3_T <dbl>

Finally, we can request beta values. Beta values are measures of
methylation, scaled to lie between 0 and 1, where 0 means that the
window is unmethylated and 1 is methylated. These are scaled with
respect to a further number of metrics, including region CpG_density,
background noise and the sample enrichment profile, and are therefore
the most useful value to consider when comparing methylation between
samples.

exampleTumourNormal %>%
  getBetaTable()
#> Generating table of beta values for 819 regions across 10 samples.
#> # A tibble: 819 × 14
#>    seqnames    start      end CpG_density Colon1_N Colon1_T Colon2_N Colon2_T
#>    <fct>       <int>    <int>       <dbl>    <dbl>    <dbl>    <dbl>    <dbl>
#>  1 7        25002001 25002300        5.51  NA        0.347   NA        0.369 
#>  2 7        25005001 25005300       13.4    0.0565   0.0171   0.0275   0.0165
#>  3 7        25008601 25008900        5.57  NA        0.204   NA        0.363 
#>  4 7        25011301 25011600        5.10  NA        0.382   NA        0.406 
#>  5 7        25017601 25017900        8.38   0.122    0.0695   0.918    0.818 
#>  6 7        25017901 25018200       17.9    0.0240   0.0660   0.265    0.250 
#>  7 7        25018201 25018500       16.5    0.0472   0.0143   0.112    0.0669
#>  8 7        25018501 25018800       17.5    0.0241   0.0140   0.0426   0.0133
#>  9 7        25018801 25019100       15.3    0.0493   0.0149   0.0692   0.0559
#> 10 7        25019101 25019400       18.2    0.0932   0.0380   0.220    0.0646
#> # ℹ 809 more rows
#> # ℹ 6 more variables: Lung1_N <dbl>, Lung1_T <dbl>, Lung2_N <dbl>,
#> #   Lung2_T <dbl>, Lung3_N <dbl>, Lung3_T <dbl>
…
All three of these functions take an option
useGroupMeans that determine whether to average over the
group column of the qseaSet sampleTable, which
can be useful when you have biological or technical replicates for
example.

The example qseaSet has group as the same as sample_name, so we need
to change that to see the effect:

exampleTumourNormal %>%
  getBetaTable(useGroupMeans = FALSE)
#> Generating table of beta values for 819 regions across 10 samples.
#> # A tibble: 819 × 14
#>    seqnames    start      end CpG_density Colon1_N Colon1_T Colon2_N Colon2_T
#>    <fct>       <int>    <int>       <dbl>    <dbl>    <dbl>    <dbl>    <dbl>
#>  1 7        25002001 25002300        5.51  NA        0.347   NA        0.369 
#>  2 7        25005001 25005300       13.4    0.0565   0.0171   0.0275   0.0165
#>  3 7        25008601 25008900        5.57  NA        0.204   NA        0.363 
#>  4 7        25011301 25011600        5.10  NA        0.382   NA        0.406 
#>  5 7        25017601 25017900        8.38   0.122    0.0695   0.918    0.818 
#>  6 7        25017901 25018200       17.9    0.0240   0.0660   0.265    0.250 
#>  7 7        25018201 25018500       16.5    0.0472   0.0143   0.112    0.0669
#>  8 7        25018501 25018800       17.5    0.0241   0.0140   0.0426   0.0133
#>  9 7        25018801 25019100       15.3    0.0493   0.0149   0.0692   0.0559
#> 10 7        25019101 25019400       18.2    0.0932   0.0380   0.220    0.0646
#> # ℹ 809 more rows
#> # ℹ 6 more variables: Lung1_N <dbl>, Lung1_T <dbl>, Lung2_N <dbl>,
#> #   Lung2_T <dbl>, Lung3_N <dbl>, Lung3_T <dbl>

exampleTumourNormal %>%
  mutate(group = str_remove(sample_name,"\\d")) %>%
  getBetaTable(useGroupMeans = TRUE) 
#> Generating table of beta values for 819 regions across 4 sample groups.
#> # A tibble: 819 × 8
#>    seqnames    start      end CpG_density  Colon_N Colon_T Lung_N Lung_T
#>    <fct>       <int>    <int>       <dbl>    <dbl>   <dbl>  <dbl>  <dbl>
#>  1 7        25002001 25002300        5.51 NaN       0.358  0.372  0.222 
#>  2 7        25005001 25005300       13.4    0.0420  0.0168 0.0404 0.0748
#>  3 7        25008601 25008900        5.57 NaN       0.284  0.263  0.303 
#>  4 7        25011301 25011600        5.10 NaN       0.394  0.373  0.416 
#>  5 7        25017601 25017900        8.38   0.520   0.444  0.877  0.721 
#>  6 7        25017901 25018200       17.9    0.145   0.158  0.180  0.123 
#>  7 7        25018201 25018500       16.5    0.0797  0.0406 0.0588 0.0659
#>  8 7        25018501 25018800       17.5    0.0334  0.0137 0.0262 0.0293
#>  9 7        25018801 25019100       15.3    0.0592  0.0354 0.0940 0.113 
#> 10 7        25019101 25019400       18.2    0.156   0.0513 0.0753 0.0693
#> # ℹ 809 more rows
…
