Differentially Methylated Regions and Annotatation • mesa
…
exampleTumourNormal |>
  calculateDMRs(variable = "tumour",
                contrasts = "first") 
#> Calculating the first possible contrast on the tumour column.
#> Generating table of nrpm values for 819 regions across 10 samples.
#> Loading required namespace: GenomeInfoDb
#> Fitting initial GLM on 309 windows, using 2 cores
#> Performing contrast Normal_vs_Tumour
#> Contrasts Complete
#> selecting regions from contrast Normal_vs_Tumour
#> selected 23/309 windows
#> adding test results from Normal_vs_Tumour
#> # A tibble: 23 × 11
#>    seqnames    start      end CpG_density Normal_vs_Tumour_log2FC
#>    <fct>       <int>    <int>       <dbl>                   <dbl>
#>  1 7        27102901 27103200       10.8                   -1.94 
#>  2 7        27103501 27103800       13.1                   -1.88 
#>  3 7        27103801 27104100        7.83                  -1.33 
#>  4 7        27108301 27108600       15.7                   -1.18 
#>  5 7        27108601 27108900       16.1                   -0.933
#>  6 7        27144601 27144900       11.1                   -1.47 
#>  7 7        27144901 27145200       16.3                   -1.30 
#>  8 7        27156301 27156600       18.5                   -2.57 
#>  9 7        27159901 27160200        9.48                   1.16 
#> 10 7        27164701 27165000       13.8                   -2.25 
#> # ℹ 13 more rows
#> # ℹ 6 more variables: Normal_vs_Tumour_adjPval <dbl>,
#> #   Normal_vs_Tumour_deltaBeta <dbl>, Normal_beta_means <dbl>,
#> #   Tumour_beta_means <dbl>, Normal_nrpm_means <dbl>, Tumour_nrpm_means <dbl>

Or a string with the two groups separated by "_vs_",
i.e.

exampleTumourNormal |>
  calculateDMRs(variable = "tumour",
                contrasts = "Tumour_vs_Normal") 
#> Generating table of nrpm values for 819 regions across 10 samples.
#> Fitting initial GLM on 309 windows, using 2 cores
#> Performing contrast Tumour_vs_Normal
#> Contrasts Complete
#> selecting regions from contrast Tumour_vs_Normal
#> selected 23/309 windows
#> adding test results from Tumour_vs_Normal
#> # A tibble: 23 × 11
#>    seqnames    start      end CpG_density Tumour_vs_Normal_log2FC
#>    <fct>       <int>    <int>       <dbl>                   <dbl>
#>  1 7        27102901 27103200       10.8                    1.94 
#>  2 7        27103501 27103800       13.1                    1.88 
#>  3 7        27103801 27104100        7.83                   1.33 
#>  4 7        27108301 27108600       15.7                    1.18 
#>  5 7        27108601 27108900       16.1                    0.933
#>  6 7        27144601 27144900       11.1                    1.47 
#>  7 7        27144901 27145200       16.3                    1.30 
#>  8 7        27156301 27156600       18.5                    2.57 
#>  9 7        27159901 27160200        9.48                  -1.16 
#> 10 7        27164701 27165000       13.8                    2.25 
#> # ℹ 13 more rows
#> # ℹ 6 more variables: Tumour_vs_Normal_adjPval <dbl>,
#> #   Tumour_vs_Normal_deltaBeta <dbl>, Normal_beta_means <dbl>,
#> #   Tumour_beta_means <dbl>, Normal_nrpm_means <dbl>, Tumour_nrpm_means <dbl>
…
#> Performing contrast LUSC_vs_NormalLung
#> Contrasts Complete
#> selecting regions from contrast NormalColon_vs_NormalLung
#> selected 18/309 windows
#> selecting regions from contrast CRC_vs_NormalLung
#> selected 44/309 windows
#> selecting regions from contrast LUAD_vs_NormalLung
#> selected 23/309 windows
#> selecting regions from contrast LUSC_vs_NormalLung
#> selected 57/309 windows
#> adding test results from NormalColon_vs_NormalLung
#> adding test results from CRC_vs_NormalLung
#> adding test results from LUAD_vs_NormalLung
#> adding test results from LUSC_vs_NormalLung
#> # A tibble: 94 × 26
#>    seqnames    start      end CpG_density NormalColon_vs_NormalLung_log2FC
#>    <fct>       <int>    <int>       <dbl>                            <dbl>
#>  1 7        25852801 25853100       18.4                             1.75 
#>  2 7        25860601 25860900       11.6                             3.35 
#>  3 7        27044401 27044700       14.7                             0.775
#>  4 7        27087601 27087900        7.24                            1.73 
#>  5 7        27087901 27088200       18.7                             1.67 
#>  6 7        27088201 27088500       19.7                             2.12 
#>  7 7        27088501 27088800       13.4                             1.61 
#>  8 7        27106501 27106800       19.0                             1.42 
#>  9 7        27108601 27108900       16.1                             0.860
#> 10 7        27213301 27213600       15.4                             3.47 
#> # ℹ 84 more rows
#> # ℹ 21 more variables: NormalColon_vs_NormalLung_adjPval <dbl>,
#> #   NormalColon_vs_NormalLung_deltaBeta <dbl>, CRC_vs_NormalLung_log2FC <dbl>,
#> #   CRC_vs_NormalLung_adjPval <dbl>, CRC_vs_NormalLung_deltaBeta <dbl>,
#> #   LUAD_vs_NormalLung_log2FC <dbl>, LUAD_vs_NormalLung_adjPval <dbl>,
#> #   LUAD_vs_NormalLung_deltaBeta <dbl>, LUSC_vs_NormalLung_log2FC <dbl>,
#> #   LUSC_vs_NormalLung_adjPval <dbl>, LUSC_vs_NormalLung_deltaBeta <dbl>, …
…
exampleTumourNormal |>
  calculateDMRs(variable = "tumour",
                contrasts = tibble(group1 = "Tumour", group2 = "Normal"),
                keepData = TRUE) 
#> Generating table of nrpm values for 819 regions across 10 samples.
#> Fitting initial GLM on 309 windows, using 2 cores
#> Performing contrast Tumour_vs_Normal
#> Contrasts Complete
#> selecting regions from contrast Tumour_vs_Normal
#> selected 23/309 windows
#> adding test results from Tumour_vs_Normal
#> # A tibble: 23 × 31
#>    seqnames    start      end CpG_density Tumour_vs_Normal_log2FC
#>    <fct>       <int>    <int>       <dbl>                   <dbl>
#>  1 7        27102901 27103200       10.8                    1.94 
#>  2 7        27103501 27103800       13.1                    1.88 
#>  3 7        27103801 27104100        7.83                   1.33 
#>  4 7        27108301 27108600       15.7                    1.18 
#>  5 7        27108601 27108900       16.1                    0.933
#>  6 7        27144601 27144900       11.1                    1.47 
#>  7 7        27144901 27145200       16.3                    1.30 
#>  8 7        27156301 27156600       18.5                    2.57 
#>  9 7        27159901 27160200        9.48                  -1.16 
#> 10 7        27164701 27165000       13.8                    2.25 
#> # ℹ 13 more rows
#> # ℹ 26 more variables: Tumour_vs_Normal_adjPval <dbl>,
#> #   Tumour_vs_Normal_deltaBeta <dbl>, Colon1_N_beta <dbl>, Colon1_T_beta <dbl>,
#> #   Colon2_N_beta <dbl>, Colon2_T_beta <dbl>, Lung1_N_beta <dbl>,
#> #   Lung1_T_beta <dbl>, Lung2_N_beta <dbl>, Lung2_T_beta <dbl>,
#> #   Lung3_N_beta <dbl>, Lung3_T_beta <dbl>, Colon1_N_nrpm <dbl>,
#> #   Colon1_T_nrpm <dbl>, Colon2_N_nrpm <dbl>, Colon2_T_nrpm <dbl>, …
…
DMRsCovariateTissue <- exampleTumourNormal |>
  calculateDMRs(variable = "tumour",
                covariates = "tissue",
                contrasts = tibble(group1 = "Tumour", group2 = "Normal")) |>
  as_tibble()
#> Generating table of nrpm values for 819 regions across 10 samples.
#> Fitting initial GLM on 309 windows, using 2 cores
#> Performing contrast Tumour_vs_Normal
#> Contrasts Complete
#> selecting regions from contrast Tumour_vs_Normal
#> selected 29/309 windows
#> adding test results from Tumour_vs_Normal

DMRsCovariateTissue
#> # A tibble: 29 × 11
#>    seqnames    start      end CpG_density Tumour_vs_Normal_log2FC
#>    <fct>       <int>    <int>       <dbl>                   <dbl>
#>  1 7        27102001 27102300       17.1                    1.87 
#>  2 7        27102901 27103200       10.8                    1.94 
#>  3 7        27103501 27103800       13.1                    1.88 
#>  4 7        27103801 27104100        7.83                   1.32 
#>  5 7        27106501 27106800       19.0                    0.801
#>  6 7        27106801 27107100       13.1                    1.12 
#>  7 7        27108001 27108300       14.3                    0.838
#>  8 7        27108301 27108600       15.7                    1.15 
#>  9 7        27108601 27108900       16.1                    0.938
#> 10 7        27124201 27124500       18.1                    0.979
#> # ℹ 19 more rows
#> # ℹ 6 more variables: Tumour_vs_Normal_adjPval <dbl>,
#> #   Tumour_vs_Normal_deltaBeta <dbl>, Normal_beta_means <dbl>,
#> #   Tumour_beta_means <dbl>, Normal_nrpm_means <dbl>, Tumour_nrpm_means <dbl>
…
DMRsCovariatePatient <- exampleTumourNormal |>
  calculateDMRs(variable = "tumour",
                covariates = "patient", 
                contrasts = tibble(sample1 = "Tumour", sample2 = "Normal")) |>
  as_tibble()
#> Generating table of nrpm values for 819 regions across 10 samples.
#> Fitting initial GLM on 309 windows, using 2 cores
#> Performing contrast Tumour_vs_Normal
#> Contrasts Complete
#> selecting regions from contrast Tumour_vs_Normal
#> selected 32/309 windows
#> adding test results from Tumour_vs_Normal

DMRsCovariatePatient
#> # A tibble: 32 × 11
#>    seqnames    start      end CpG_density Tumour_vs_Normal_log2FC
#>    <fct>       <int>    <int>       <dbl>                   <dbl>
#>  1 7        26147701 26148000       11.0                   -0.597
#>  2 7        27044101 27044400       13.0                   -0.542
#>  3 7        27102001 27102300       17.1                    1.83 
#>  4 7        27102301 27102600       11.7                    1.37 
#>  5 7        27102901 27103200       10.8                    1.95 
#>  6 7        27103501 27103800       13.1                    1.86 
#>  7 7        27103801 27104100        7.83                   1.31 
#>  8 7        27108301 27108600       15.7                    1.11 
#>  9 7        27108601 27108900       16.1                    0.923
#> 10 7        27124201 27124500       18.1                    0.976
#> # ℹ 22 more rows
#> # ℹ 6 more variables: Tumour_vs_Normal_adjPval <dbl>,
#> #   Tumour_vs_Normal_deltaBeta <dbl>, Normal_beta_means <dbl>,
#> #   Tumour_beta_means <dbl>, Normal_nrpm_means <dbl>, Tumour_nrpm_means <dbl>
…
The output includes which gene was assigned to that window, with an
ENSEMBL ID column, a SYMBOL column for a name
associated with that gene, and a (somewhat confusingly named)
GENENAME column with a long-form expansion of that name.
The distanceToTSS column gives how far the query window is
away from the Transcriptional Start Site of the gene. It is worth noting
this can be positive or negative, depending on which strand the gene is
on, and that some genes are very large.

annoDMRs |> 
  dplyr::select(seqnames, start, end, distanceToTSS, ENSEMBL, SYMBOL, GENENAME)
#> # A tibble: 32 × 7
#>    seqnames    start      end distanceToTSS ENSEMBL         SYMBOL   GENENAME   
#>    <fct>       <int>    <int>         <dbl> <chr>           <chr>    <chr>      
#>  1 7        26147701 26148000         -4198 ENSG00000050344 NFE2L3   NFE2 like …
#>  2 7        27044101 27044400        -48862 ENSG00000005020 SKAP2    src kinase…
#>  3 7        27102001 27102300          5922 ENSG00000233429 HOTAIRM1 HOXA trans…
#>  4 7        27102301 27102600          6222 ENSG00000233429 HOTAIRM1 HOXA trans…
#>  5 7        27102901 27103200          6822 ENSG00000233429 HOTAIRM1 HOXA trans…
#>  6 7        27103501 27103800          7422 ENSG00000233429 HOTAIRM1 HOXA trans…
#>  7 7        27103801 27104100          7722 ENSG00000233429 HOTAIRM1 HOXA trans…
#>  8 7        27108301 27108600         12222 ENSG00000233429 HOTAIRM1 HOXA trans…
#>  9 7        27108601 27108900         12522 ENSG00000233429 HOTAIRM1 HOXA trans…
#> 10 7        27124201 27124500          2284 NA              HOXA-AS2 HOXA clust…
#> # ℹ 22 more rows

The annotation column gives a long-form explanation of
the annotation for that window, including which exon of which transcript
is assigned, while shortAnno abbreviates this just
e.g. Intron/Exon/Promoter.

annoDMRs |> 
  dplyr::select(start, SYMBOL, shortAnno, annotation)
#> # A tibble: 32 × 4
#>       start SYMBOL   shortAnno         annotation                               
#>       <int> <chr>    <chr>             <chr>                                    
#>  1 26147701 NFE2L3   Distal Intergenic Distal Intergenic                        
#>  2 27044101 SKAP2    Intron            Intron (ENST00000748166.1/ENST0000074816…
#>  3 27102001 HOTAIRM1 Exon              Exon (ENST00000222718.7/3199, exon 1 of …
#>  4 27102301 HOTAIRM1 5' UTR            5' UTR                                   
#>  5 27102901 HOTAIRM1 Intron            Intron (ENST00000716605.1/100506311, int…
#>  6 27103501 HOTAIRM1 Intron            Intron (ENST00000716605.1/100506311, int…
#>  7 27103801 HOTAIRM1 Intron            Intron (ENST00000716605.1/100506311, int…
#>  8 27108301 HOTAIRM1 Exon              Exon (ENST00000396352.8/3200, exon 3 of …
#>  9 27108601 HOTAIRM1 Exon              Exon (ENST00000396352.8/3200, exon 3 of …
#> 10 27124201 HOXA-AS2 Exon              Exon (ENST00000517550.1/285943, exon 3 o…
#> # ℹ 22 more rows

Details of the full location of the gene are provided, including how
long the gene is, and which transcript is being used in the
annotations.

annoDMRs |> 
  dplyr::select(geneChr, geneStart, geneEnd, geneLength, geneStrand, geneId, transcriptId)
#> # A tibble: 32 × 7
#>    geneChr geneStart  geneEnd geneLength geneStrand geneId    transcriptId     
#>      <int>     <int>    <int>      <int>      <int> <chr>     <chr>            
#>  1       7  26152198 26187137      34940          1 9603      ENST00000056233.4
#>  2       7  26738840 26995239     256400          2 8935      ENST00000432747.1
#>  3       7  27096079 27122885      26807          1 100506311 ENST00000716605.1
#>  4       7  27096079 27122885      26807          1 100506311 ENST00000716605.1
#>  5       7  27096079 27122885      26807          1 100506311 ENST00000716605.1
#>  6       7  27096079 27122885      26807          1 100506311 ENST00000716605.1
#>  7       7  27096079 27122885      26807          1 100506311 ENST00000716605.1
#>  8       7  27096079 27122885      26807          1 100506311 ENST00000716605.1
#>  9       7  27096079 27122885      26807          1 100506311 ENST00000716605.1
#> 10       7  27121917 27128760       6844          1 285943    ENST00000517550.1
#> # ℹ 22 more rows

Finally, for hg38, the function also returns several columns
regarding whether the region lies within a CpG “island” (characterised
regions of the genome with high numbers of CGs), as well as the “shores”
that are 2000bp each side of the “island”, and “shelves” (a further
2000bp around these). It is possible for a region to be in multiple
islands/shores/shelves simultaneously, so these columns give how many of
these that they overlap.

annoDMRs |>
  dplyr::select(seqnames, start, end, nIslands, nShore, nShelf, inFantom, landscape)
#> # A tibble: 32 × 8
#>    seqnames    start      end nIslands nShore nShelf inFantom landscape
#>    <fct>       <int>    <int>    <int>  <int>  <int>    <int> <chr>    
#>  1 7        26147701 26148000        0      0      0        0 Open Sea 
#>  2 7        27044101 27044400        0      0      0        0 Open Sea 
#>  3 7        27102001 27102300        0      1      0        0 Shore    
#>  4 7        27102301 27102600        0      1      1        0 Shore    
#>  5 7        27102901 27103200        0      1      1        0 Shore    
#>  6 7        27103501 27103800        1      1      1        0 Island   
#>  7 7        27103801 27104100        1      1      2        0 Island   
#>  8 7        27108301 27108600        1      2      1        0 Island   
#>  9 7        27108601 27108900        1      3      0        0 Island   
#> 10 7        27124201 27124500        1      2      0        0 Island   
#> # ℹ 22 more rows
…
exampleMouse |>
  getRegions() |>
  annotateWindows(TxDb = "TxDb.Mmusculus.UCSC.mm10.knownGene",
                  annoDb = "org.Mm.eg.db")
#> >> Update txdb in cache...
#> >> Using Genome: mm10 ...
#> >> Using Genome: mm10 ...
#> >> Using Genome: mm10 ...
#> Loading required package: org.Mm.eg.db
#> 
#> 'select()' returned 1:1 mapping between keys and columns
#> # A tibble: 153 × 17
#>    seqnames     start       end CpG_density annotation geneChr geneStart geneEnd
#>    <fct>        <int>     <int>       <dbl> <chr>        <int>     <int>   <int>
#>  1 5        142501201 142501500        5.22 Intron (E…       5 142484839  1.43e8
#>  2 5        142506601 142506900        5.98 Exon (ENS…       5 142484839  1.43e8
#>  3 5        142508101 142508400        6.80 5' UTR           5 142484839  1.43e8
#>  4 5        142523701 142524000        5.22 Intron (E…       5 142484839  1.43e8
#>  5 5        142529401 142529700        5.86 Exon (ENS…       5 142484839  1.43e8
#>  6 5        142529701 142530000       14.9  5' UTR           5 142484839  1.43e8
#>  7 5        142530001 142530300       15.4  Promoter …       5 142525838  1.43e8
#>  8 5        142538401 142538700        5.25 Intron (E…       5 142484839  1.43e8
#>  9 5        142550401 142550700       11.0  Promoter …       5 142484839  1.43e8
#> 10 5        142550701 142551000       20.8  Promoter …       5 142543618  1.43e8
#> # ℹ 143 more rows
#> # ℹ 9 more variables: geneLength <int>, geneStrand <int>, geneId <chr>,
#> #   transcriptId <chr>, distanceToTSS <dbl>, ENSEMBL <chr>, SYMBOL <chr>,
#> #   GENENAME <chr>, shortAnno <chr>
…
setMesaTxDb("TxDb.Mmusculus.UCSC.mm10.knownGene")
setMesaAnnoDb("org.Mm.eg.db")

Having done this, the default databases will be set
appropriately:

exampleMouse |>
  getRegions() |>
  annotateWindows()
#> >> Using Genome: mm10 ...
#> >> Using Genome: mm10 ...
#> >> Using Genome: mm10 ...
#> 'select()' returned 1:1 mapping between keys and columns
#> # A tibble: 153 × 17
#>    seqnames     start       end CpG_density annotation geneChr geneStart geneEnd
#>    <fct>        <int>     <int>       <dbl> <chr>        <int>     <int>   <int>
#>  1 5        142501201 142501500        5.22 Intron (E…       5 142484839  1.43e8
#>  2 5        142506601 142506900        5.98 Exon (ENS…       5 142484839  1.43e8
#>  3 5        142508101 142508400        6.80 5' UTR           5 142484839  1.43e8
#>  4 5        142523701 142524000        5.22 Intron (E…       5 142484839  1.43e8
#>  5 5        142529401 142529700        5.86 Exon (ENS…       5 142484839  1.43e8
#>  6 5        142529701 142530000       14.9  5' UTR           5 142484839  1.43e8
#>  7 5        142530001 142530300       15.4  Promoter …       5 142525838  1.43e8
#>  8 5        142538401 142538700        5.25 Intron (E…       5 142484839  1.43e8
#>  9 5        142550401 142550700       11.0  Promoter …       5 142484839  1.43e8
#> 10 5        142550701 142551000       20.8  Promoter …       5 142543618  1.43e8
#> # ℹ 143 more rows
#> # ℹ 9 more variables: geneLength <int>, geneStrand <int>, geneId <chr>,
#> #   transcriptId <chr>, distanceToTSS <dbl>, ENSEMBL <chr>, SYMBOL <chr>,
#> #   GENENAME <chr>, shortAnno <chr>
…
