Dimensionality Reduction - PCAs and UMAPs • mesa
…
methods::slot(pca1,"dataTable") # NULL
#> data frame with 0 columns and 0 rows

methods::slot(pca3, "dataTable") # dataTable has been stored in output
#> # A tibble: 599 × 14
#>    seqnames    start      end CpG_density Colon1_N Colon1_T Colon2_N Colon2_T
#>    <fct>       <int>    <int>       <dbl>    <dbl>    <dbl>    <dbl>    <dbl>
#>  1 7        25005001 25005300       13.4    0.0565   0.0171   0.0275   0.0165
#>  2 7        25017601 25017900        8.38   0.122    0.0695   0.918    0.818 
#>  3 7        25017901 25018200       17.9    0.0240   0.0660   0.265    0.250 
#>  4 7        25018201 25018500       16.5    0.0472   0.0143   0.112    0.0669
#>  5 7        25018501 25018800       17.5    0.0241   0.0140   0.0426   0.0133
#>  6 7        25018801 25019100       15.3    0.0493   0.0149   0.0692   0.0559
#>  7 7        25019101 25019400       18.2    0.0932   0.0380   0.220    0.0646
#>  8 7        25019401 25019700       17.1    0.0466   0.0528   0.0881   0.0258
#>  9 7        25035001 25035300        9.29   0.0855   0.327    0.308    0.389 
#> 10 7        25047301 25047600        9.54   0.225    0.0787   0.0722   0.0447
#> # ℹ 589 more rows
#> # ℹ 6 more variables: Lung1_N <dbl>, Lung1_T <dbl>, Lung2_N <dbl>,
#> #   Lung2_T <dbl>, Lung3_N <dbl>, Lung3_T <dbl>
…
